{
  "studies": [
    {
      "id": "study6",
      "name": "Time Tracking",
      "description": "Simple tracking of the time you work each day",
      "icon": "R.drawable.ic_time_tracking",
      "geo": false,
      "apps": false,
      "activities": false,
      "environment": false,
      "event": false,
      "commute": false,
      "time": true,
      "order": 5,
      "camera upload" : false,
      "voice upload": false
    },
    {
      "id": "study1",
      "name": "Daily Movement",
      "description": "Measure how much you move during the work day using the step sensors in your phone.",
      "icon": "R.drawable.ic_movement_sensors",
      "geo": false,
      "apps": false,
      "activities": true,
      "environment": false,
      "event": false,
      "commute": false,
      "time": false,
      "order": 3,
      "camera upload" : false,
      "voice upload": false
    },
    {
      "id": "study4",
      "name": "Locations and Distance",
      "description": "Track your location and measure distanced traveled each day using your phone's GPS.",
      "icon": "R.drawable.ic_distance_sensors",
      "geo": true,
      "apps": false,
      "activities": false,
      "environment": false,
      "event": false,
      "commute": false,
      "time": false,
      "order": 2,
      "camera upload" : false,
      "voice upload" : false
    },
    {
      "id": "study0",
      "name": "Environmental (BETA)",
      "description": "Measure temperature, loudness and light in a room.",
      "icon": "R.drawable.ic_atmosphere_sensors",
      "geo": false,
      "apps": false,
      "activities": false,
      "environment": true,
      "event": false,
      "commute": false,
      "time": false,
      "order": 6,
      "camera upload" : false,
      "voice upload": false
    },
    {
      "id": "study2",
      "name": "Work Journal",
      "description": "Track stresses, challenges, and extra time/money.",
      "icon": "R.drawable.ic_workplace_sensors",
      "geo": false,
      "apps": false,
      "activities": false,
      "environment": false,
      "event": true,
      "commute": false,
      "time": false,
      "order": 0,
      "camera upload" : false,
      "voice upload": false
    },

    {
      "id": "study3",
      "name": "Work App Usage",
      "description": "Measure how much time you spend using work apps on your device.",
      "icon": "R.drawable.ic_screen_time_sensors",
      "geo": false,
      "apps": true,
      "activities": false,
      "environment": false,
      "event": false,
      "commute": false,
      "time": false,
      "order": 4,
      "camera upload" : false,
      "voice upload" : false
    },
    {
      "id": "study5",
      "name": "Commute Time",
      "description": "How long does it take to get from home to work?",
      "icon": "R.drawable.ic_walking",
      "geo": true,
      "apps": false,
      "activities": false,
      "environment": false,
      "event": false,
      "commute": true,
      "time": false,
      "order": 5,
      "camera upload" : false,
      "voice upload": false
    },
    {
      "id": "study7",
      "name": "Timesheets and Paystubs",
      "description": "Upload screenshots/pictures of timesheets/paystubs make sure you're getting paid for your work.",
      "icon": "R.drawable.ic_timesheet",
      "geo": false,
      "apps": false,
      "activities": false,
      "environment": false,
      "event": false,
      "commute": false,
      "time": false,
      "order": 1,
      "camera upload" : true,
      "voice upload" : false
    },
    {
      "id": "study8",
      "name": "Voice Upload",
      "description": "Upload voice recordings to discuss your thoughts.",
      "icon": "R.drawable.voice_upload",
      "geo": false,
      "apps": false,
      "activities": false,
      "environment": false,
      "event": false,
      "commute": false,
      "time": false,
      "order": 7,
      "camera upload" : false,
      "voice upload" : true
    }

  ]
}
